…
If you want to know how to build a query, please read this guide from
[Twitter](https://developer.twitter.com/en/docs/twitter-api/tweets/search/integrate/build-a-query).

### The dumped data

You can dump the collected data as either Serialized R Object (RDS),
Comma-seperated data (CSV), Excel (xlsx), Stata (dta) or SPSS (sav).

The format is the so-called “tidy” format like the one below

``` r
require(tibble)
#> Loading required package: tibble
example
#> # A tibble: 857 x 31
#>    tweet_id   user_username  text          lang  source   author_id  created_at 
#>    <chr>      <chr>          <chr>         <chr> <chr>    <chr>      <chr>      
#>  1 136537201… RutgersCommIn… "RT @NatComm… en    Twitter… 52517689   2021-02-26…
#>  2 136536853… NatComm        "NCA invites… en    Twitter… 17880989   2021-02-26…
#>  3 136533671… ElizabethAHin… "Always happ… en    Twitter… 116490404… 2021-02-26…
#>  4 136519974… quinnli725     "RT @judith_… en    Twitter… 781327782… 2021-02-26…
#>  5 136512063… lizbmarquis    "RT @disable… en    Twitter… 982724506… 2021-02-26…
#>  6 136507685… jlinabary      "RT @disable… en    Twitter… 16538343   2021-02-25…
#>  7 136506714… egerphd        "RT @disable… en    Twitter… 102731352… 2021-02-25…
#>  8 136506497… MrSulaimanKhan "RT @disable… en    Twitter… 213644552  2021-02-25…
#>  9 136506486… wunpini_fm     "RT @disable… en    Twitter… 460255655  2021-02-25…
#> 10 136506462… disabledphd    "Hey #CommTw… en    Twitter… 118480786… 2021-02-25…
#> # … with 847 more rows, and 24 more variables: conversation_id <chr>,
#> #   possibly_sensitive <lgl>, in_reply_to_user_id <chr>, user_location <chr>,
#> #   user_description <chr>, user_created_at <chr>,
#> #   user_profile_image_url <chr>, user_name <chr>, user_verified <lgl>,
#> #   user_url <chr>, user_protected <lgl>, user_pinned_tweet_id <chr>,
#> #   retweet_count <int>, like_count <int>, quote_count <int>,
#> #   user_tweet_count <int>, user_list_count <int>, user_followers_count <int>,
#> #   user_following_count <int>, sourcetweet_type <chr>, sourcetweet_id <chr>,
#> #   sourcetweet_text <chr>, sourcetweet_lang <chr>, sourcetweet_author_id <chr>
```
…
